…
    ## `summarise()` has grouped output by 'neighbourhood_name'. You can override
    ## using the `.groups` argument.

``` r
# Print the summary statistics
print(summary_stats)
```

    ## # A tibble: 3,056 × 6
    ##    neighbourhood_name species_name   range_trees mean_trees total_trees
    ##    <chr>              <chr>                <dbl>      <dbl>       <int>
    ##  1 ARBUTUS-RIDGE      ABIES                    1    265596.           4
    ##  2 ARBUTUS-RIDGE      ACERIFOLIA   X      179879     81105.       10609
    ##  3 ARBUTUS-RIDGE      ACUTISSIMA           41489    133680.          25
    ##  4 ARBUTUS-RIDGE      ALNIFOLIA           229993    174484.         256
    ##  5 ARBUTUS-RIDGE      AMERICANA           254815    115012.       50625
    ##  6 ARBUTUS-RIDGE      AQUIFOLIUM           95635     69185.           9
    ##  7 ARBUTUS-RIDGE      ARIA                108901    224187.         361
    ##  8 ARBUTUS-RIDGE      ARNOLDIANA X         61233    213387           16
    ##  9 ARBUTUS-RIDGE      AUCUPARIA           160907    121185.         256
    ## 10 ARBUTUS-RIDGE      AVIUM                94891     44944.         225
    ## # ℹ 3,046 more rows
    ## # ℹ 1 more variable: unique_cultivars <int>
…
# Calculate the mean height for each neighborhood
neighborhood_height_means <- tree_data %>%
  group_by(neighbourhood_name) %>%
  summarize(mean_height = mean(height_range_id))

# Arrange the neighborhoods by mean height in descending order
neighborhood_height_means <- neighborhood_height_means %>%
  arrange(desc(mean_height))

# View the result
neighborhood_height_means
```

    ## # A tibble: 22 × 2
    ##    neighbourhood_name mean_height
    ##    <chr>                    <dbl>
    ##  1 KITSILANO                 3.26
    ##  2 SHAUGHNESSY               3.24
    ##  3 WEST POINT GREY           3.03
    ##  4 DUNBAR-SOUTHLANDS         3.03
    ##  5 WEST END                  2.88
    ##  6 KERRISDALE                2.81
    ##  7 FAIRVIEW                  2.80
    ##  8 ARBUTUS-RIDGE             2.72
    ##  9 MOUNT PLEASANT            2.65
    ## 10 GRANDVIEW-WOODLAND        2.60
    ## # ℹ 12 more rows
…
