…
<!-------------------------- Start your work below ---------------------------->

``` r
# Calculate the counts of trees for each species and reorder by count
# To see the species that are most planted in vancouver
species_counts <- vancouver_trees %>%
  group_by(species_name) %>%
  summarize(count = n()) %>%
  arrange(desc(count))

species_counts
```

    ## # A tibble: 283 × 2
    ##    species_name count
    ##    <chr>        <int>
    ##  1 SERRULATA    13357
    ##  2 CERASIFERA   12031
    ##  3 PLATANOIDES  11963
    ##  4 RUBRUM        8467
    ##  5 AMERICANA     5515
    ##  6 SYLVATICA     5285
    ##  7 BETULUS       5195
    ##  8 EUCHLORA   X  4427
    ##  9 FREEMANI   X  4164
    ## 10 CAMPESTRE     3477
    ## # ℹ 273 more rows
…
